200
440
227
191
855
568
354
233
899
626
659
422
513
55
759
597
652
852
810
878
784
658
214
308
279
684
217
262
794
469
662
625
537
483
233
182
505
532
796
987
460
59
479
257
687
807
756
802
132
96
168
796
376
527
622
455
615
194
414
302
99
128
202
61
36
743
936
424
689
23
100
948
436
74
125
717
652
195
640
58
684
25
362
816
657
526
542
522
656
784
670
378
766
611
839
55
121
88
101
994
756
351
349
486
624
4
874
173
325
689
246
897
568
240
994
966
206
371
178
409
727
242
503
508
526
384
256
609
260
843
243
416
149
422
916
815
426
157
176
125
13
612
276
932
612
843
190
209
60
578
669
936
582
637
933
984
823
653
114
529
834
987
510
718
736
841
189
218
368
735
341
859
441
855
468
534
236
326
761
941
862
351
764
612
147
317
642
116
455
500
321
857
397
477
114
535
834
221
236
156
508
