800
810
22
845
903
182
830
685
762
338
632
90
387
850
321
552
958
230
468
113
815
572
239
148
219
914
80
362
420
677
917
336
188
681
352
805
921
110
33
687
607
819
549
214
627
561
109
556
355
671
105
767
875
109
587
973
930
279
457
435
891
632
130
866
719
936
377
142
848
180
615
908
593
633
555
40
657
604
709
536
606
200
88
849
958
981
285
620
800
90
116
148
593
8
78
662
587
826
718
837
240
796
405
794
444
887
909
293
192
958
813
538
563
504
667
466
411
410
169
509
785
720
102
401
474
728
260
538
314
92
545
38
100
346
407
427
68
561
919
904
349
938
851
629
238
65
640
903
679
862
34
308
777
140
729
871
620
398
434
825
682
729
793
205
264
170
217
317
165
132
606
270
147
933
505
573
995
863
675
468
413
654
421
966
916
707
580
138
200
604
170
407
469
837
591
981
105
479
519
435
939
331
756
995
31
148
716
870
6
118
558
741
578
359
630
741
511
752
960
862
780
255
49
456
25
837
488
523
675
591
428
633
331
315
623
242
396
513
632
156
571
979
359
837
89
899
145
823
684
31
51
54
300
531
883
721
905
892
65
442
465
108
269
500
239
375
603
576
671
665
505
732
350
538
81
961
503
103
865
351
928
501
576
119
451
924
627
628
40
407
678
191
312
420
790
478
620
652
722
761
684
624
722
985
867
85
416
788
648
126
523
841
903
134
563
988
638
894
806
959
444
897
377
782
675
145
106
653
278
981
2
104
654
2
488
702
871
11
233
971
487
854
907
737
30
4
704
955
608
853
201
21
272
302
832
355
543
600
311
92
474
262
918
650
881
563
807
873
260
733
87
290
392
706
141
828
271
181
436
317
670
229
525
522
535
195
366
193
119
157
527
631
42
556
499
83
522
198
947
373
223
57
246
517
944
477
957
548
472
645
506
193
651
802
81
650
63
187
647
716
896
268
391
850
404
234
468
254
133
777
800
959
404
859
794
871
731
997
318
335
939
487
799
137
76
767
208
202
867
659
848
146
397
849
203
673
954
381
725
592
581
943
945
681
112
949
8
60
492
292
149
680
357
847
869
578
268
778
781
508
871
854
395
325
307
160
110
105
50
192
466
485
207
675
795
201
261
870
995
690
96
744
358
307
819
946
682
359
432
653
685
990
359
888
663
866
326
157
894
700
150
863
751
672
406
490
498
634
712
615
719
307
674
987
557
684
535
35
482
501
492
829
380
819
119
590
781
916
465
692
133
472
76
887
657
190
519
769
514
55
102
182
585
228
830
858
598
247
95
446
199
368
371
15
629
79
603
675
747
840
552
960
400
232
366
299
115
210
325
370
62
671
545
159
460
648
954
385
340
89
326
672
535
643
89
749
678
446
503
980
116
170
288
543
170
904
754
0
562
82
365
306
188
747
951
780
740
828
527
524
532
636
887
780
461
235
483
356
401
196
31
972
412
821
621
947
185
740
738
361
345
912
50
773
286
864
610
516
373
508
916
239
386
630
584
511
917
764
93
800
91
86
447
503
704
582
802
265
823
152
276
794
812
520
361
351
768
579
176
688
684
563
203
621
449
90
292
820
468
850
842
453
511
670
235
474
130
569
171
446
561
745
867
440
399
711
333
972
968
158
844
982
764
78
24
820
991
396
606
344
557
520
719
838
811
794
695
752
488
249
29
44
459
314
867
94
46
377
611
535
696
919
49
2
57
9
696
247
622
488
572
310
964
714
543
865
537
701
311
526
990
675
180
576
193
991
87
793
726
866
126
54
285
41
781
47
344
671
814
889
619
291
369
426
30
486
310
161
750
595
999
